<define-tag pagetitle>DLA-2558-2 xterm</define-tag>
<define-tag report_date>2021-03-21</define-tag>
<define-tag secrefs>Bug#984615</define-tag>
<define-tag packages>xterm</define-tag>
<define-tag isvulnerable>yes</define-tag>
<define-tag fixed>yes</define-tag>
<define-tag fixed-section>no</define-tag>

#use wml::debian::security

