<define-tag pagetitle>DLA-1017-1 mpg123</define-tag>
<define-tag report_date>2017-7-8</define-tag>
<define-tag secrefs>CVE-2017-10683 Bug##866860</define-tag>
<define-tag packages>mpg123</define-tag>
<define-tag isvulnerable>yes</define-tag>
<define-tag fixed>yes</define-tag>
<define-tag fixed-section>no</define-tag>

#use wml::debian::security

