<define-tag pagetitle>DLA-1731-1 linux</define-tag>
<define-tag report_date>2019-03-27</define-tag>
<define-tag secrefs>CVE-2016-10741 CVE-2017-5753 CVE-2017-13305 CVE-2018-3639 CVE-2018-5848 CVE-2018-5953 CVE-2018-12896 CVE-2018-13053 CVE-2018-16862 CVE-2018-16884 CVE-2018-17972 CVE-2018-18281 CVE-2018-18690 CVE-2018-18710 CVE-2018-19824 CVE-2018-19985 CVE-2018-20169 CVE-2018-20511 CVE-2019-3701 CVE-2019-3819 CVE-2019-6974 CVE-2019-7221 CVE-2019-7222 CVE-2019-9213</define-tag>
<define-tag packages>linux</define-tag>
<define-tag isvulnerable>yes</define-tag>
<define-tag fixed>yes</define-tag>
<define-tag fixed-section>no</define-tag>

#use wml::debian::security

